{"dataObjectList":[{
  "objectName":"Reservation",
  "fieldList":
  [
    {"name":"id", "type":"Integer", "value":"", "primaryKey":"true"},
    {"name":"person", "type":"Object", "foreignKey":"true", "foreignTableName":"Person", "value":"{\"objectName\":\"Person\",\"fieldList\":[{\"name\":\"id\", \"type\":\"Integer\", \"value\":\"\", \"primaryKey\":\"true\"},{\"name\":\"address\", \"type\":\"Integer\", \"value\":\"1\"}, {\"name\":\"PESEL\", \"type\":\"String\", \"value\":\"90080907795\"},{\"name\":\"lastname\", \"type\":\"String\", \"value\":\"Szczuka\"},{\"name\":\"name\", \"type\":\"String\", \"value\":\"Marcin\"}]}"},
    {"name":"room", "type":"Object", "foreignKey":"true", "foreignTableName":"Room", "value":"{\"objectName\":\"Room\",\"fieldList\":[{\"name\":\"id\", \"type\":\"Integer\", \"value\":\"\", \"primaryKey\":\"true\"},{\"name\":\"capacity\", \"type\":\"Integer\", \"value\":\"2\"},{\"name\":\"bed\", \"type\":\"Integer\", \"value\":\"1\"},{\"name\":\"radio\", \"type\":\"bool\", \"value\":\"true\"},{\"name\":\"tv\", \"type\":\"bool\", \"value\":\"true\"},{\"name\":\"bathroom\", \"type\":\"bool\", \"value\":\"true\"},{\"name\":\"phone\", \"type\":\"bool\", \"value\":\"false\"},{\"name\":\"WIFI\", \"type\":\"bool\", \"value\":\"true\"},{\"name\":\"balcony\", \"type\":\"bool\", \"value\":\"false\"},{\"name\":\"seeView\", \"type\":\"bool\", \"value\":\"true\"}]}"},
    {"name":"service", "type":"List", "value":"[{\"objectName\":\"Services\",\"fieldList\":[{\"name\":\"id\", \"type\":\"Integer\", \"value\":\"\", \"primaryKey\":\"true\"},{\"name\":\"reservation\", \"type\":\"Integer\", \"foreignKey\":\"true\", \"foreignTableName\":\"Reservation\"},{\"name\":\"from\", \"type\":\"Date\", \"value\":\"2016-07-01\"},{\"name\":\"to\", \"type\":\"Date\", \"value\":\"2016-07-14\"},{\"name\":\"quantity\", \"type\":\"Integer\", \"value\":\"1\"},{\"name\":\"type\", \"type\":\"String\", \"value\":\"parking\"}]},{\"objectName\":\"Services\",\"fieldList\":[{\"name\":\"id\", \"type\":\"Integer\", \"value\":\"\", \"primaryKey\":\"true\"},{\"name\":\"reservation\", \"type\":\"Integer\", \"foreignKey\":\"true\", \"foreignTableName\":\"Reservation\"},{\"name\":\"from\", \"type\":\"Date\", \"value\":\"2016-07-01\"},{\"name\":\"to\", \"type\":\"Date\", \"value\":\"2016-07-14\"},{\"name\":\"quantity\", \"type\":\"Integer\", \"value\":\"2\"},{\"name\":\"type\", \"type\":\"String\", \"value\":\"obiad\"}]},{\"objectName\":\"Services\",\"fieldList\":[{\"name\":\"id\", \"type\":\"Integer\", \"value\":\"\", \"primaryKey\":\"true\"},{\"name\":\"reservation\", \"type\":\"Integer\", \"foreignKey\":\"true\", \"foreignTableName\":\"Reservation\"},{\"name\":\"from\", \"type\":\"Date\", \"value\":\"2016-07-01\"},{\"name\":\"to\", \"type\":\"Date\", \"value\":\"2016-07-14\"},{\"name\":\"type\", \"type\":\"String\", \"value\":\"basen\"}]}]"},
    {"name":"from", "type":"Date", "value":"2016-07-01"},
    {"name":"to", "type":"Date", "value":"2016-07-14"}
  ]
}]}

