{
  "dataObjectList": [{
    "objectName": "Services",
    "fieldList": [
      {
        "name": "id",
        "type": "Integer",
        "value": "$id",
        "primaryKey": "true"
      },
      {
        "name": "type",
        "type": "String",
        "value": "sauna"
      }
    ]
  }]
}